(* gm2.mod main module of the compiler.

Copyright (C) 2001-2021 Free Software Foundation, Inc.
Contributed by Gaius Mulley <gaius.mulley@southwales.ac.uk>.

This file is part of GNU Modula-2.

GNU Modula-2 is free software; you can redistribute it and/or modify
it under the terms of the GNU General Public License as published by
the Free Software Foundation; either version 3, or (at your option)
any later version.

GNU Modula-2 is distributed in the hope that it will be useful, but
WITHOUT ANY WARRANTY; without even the implied warranty of
MERCHANTABILITY or FITNESS FOR A PARTICULAR PURPOSE.  See the GNU
General Public License for more details.

You should have received a copy of the GNU General Public License
along with GNU Modula-2; see the file COPYING3.  If not see
<http://www.gnu.org/licenses/>.  *)

IMPLEMENTATION MODULE gm2 ;

(*
   Author     : Gaius Mulley
   Title      : gm2
   Date       : 1987  [$Date: 2013/02/11 14:45:17 $]
   SYSTEM     : UNIX (GNU Modula-2)
   Description: Main module of the compiler, collects arguments and
                starts the compilation.
   Version    : $Revision: 1.16 $
*)

FROM M2Comp IMPORT Compile ;
FROM DynamicStrings IMPORT String, KillString, InitStringCharStar ;


(*
   CompileFile - compile the filename.
*)

PROCEDURE CompileFile (filename: ADDRESS) ;
VAR
   f: String ;
BEGIN
   f := InitStringCharStar(filename) ;
   Compile(f) ;
   f := KillString(f) ;
END CompileFile


END gm2.
